<?xml version="1.0" encoding="iso-8859-1"?>
<!-- Generator: Adobe Illustrator 19.0.0, SVG Export Plug-In . SVG Version: 6.00 Build 0)  -->
<svg version="1.1" id="Capa_1" xmlns="http://www.w3.org/2000/svg" xmlns:xlink="http://www.w3.org/1999/xlink" x="0px" y="0px"
	 viewBox="0 0 512 512" style="enable-background:new 0 0 512 512;" xml:space="preserve">
<g>
	<g>
		<path d="M510.982,443.348l-30.522-93.389L493.621,271h3.36c8.284,0,14.999-6.716,14.999-14.999s-6.716-14.999-14.999-14.999
			h-16.065h-36.061l-21.698-66.397h25.626c8.284,0,14.999-6.716,14.999-14.999V78.208h17.133c8.284,0,14.999-6.716,14.999-14.999
			c0-8.284-6.716-14.999-14.999-14.999h-32.133H66.981H34.849c-8.284,0-14.999,6.716-14.999,14.999
			c0,8.284,6.716,14.999,14.999,14.999h17.132v81.397c0,8.284,6.716,14.999,14.999,14.999h25.366l-22.567,66.397H31.066H15
			C6.716,241.001,0,247.717,0,256.001S6.716,271,15,271h3.359l13.564,81.387L0.798,443.965c-1.557,4.58-0.809,9.629,2.008,13.561
			s7.357,6.265,12.193,6.265h96.396c6.424,0,12.135-4.091,14.201-10.173l29.303-86.223h203.303l28.123,86.056
			c2.016,6.168,7.769,10.34,14.257,10.34h96.397c0.006,0,0.013-0.001,0.02,0c8.284,0,14.999-6.716,14.999-14.999
			C512,446.871,511.639,445.036,510.982,443.348z M81.98,144.604V78.207h351.803v66.397h-31.309h-96.395h-96.396h-96.395H81.98z
			 M413.295,241.001h-64.836l-21.698-66.397h64.835L413.295,241.001z M316.899,241.001H197.86l22.566-66.397h74.775L316.899,241.001
			z M188.743,174.604l-22.566,66.397h-64.712l22.567-66.397H188.743z M100.652,433.793H35.94l22.566-66.396h64.71L100.652,433.793z
			 M369.081,337.396H144.157H59.838L48.772,271h31.752h96.396h160.66h96.396h29.232l-11.068,66.396H369.081z M411.462,433.793
			l-21.699-66.396h64.835l21.699,66.396H411.462z"/>
	</g>
</g>
<g>
</g>
<g>
</g>
<g>
</g>
<g>
</g>
<g>
</g>
<g>
</g>
<g>
</g>
<g>
</g>
<g>
</g>
<g>
</g>
<g>
</g>
<g>
</g>
<g>
</g>
<g>
</g>
<g>
</g>
</svg>
